(module R_Shunt_Vishay_WSHP2818 (layer F.Cu) (tedit 5D9D2DAA)
  (descr "Power Metal Strip Resistors 10W")
  (tags "SMD Shunt Resistor")
  (attr smd)
  (fp_text reference REF** (at 0 -3.81) (layer F.SilkS)
    (effects (font (size 1 1) (thickness 0.15)))
  )
  (fp_text value R_Shunt_Vishay_WSHP2818 (at 0 4.6) (layer F.Fab)
    (effects (font (size 1 1) (thickness 0.15)))
  )
  (fp_text user %R (at 0 0) (layer F.Fab)
    (effects (font (size 1 1) (thickness 0.15)))
  )
  (fp_line (start -4.572 2.54) (end 4.572 2.54) (layer F.Fab) (width 0.1))
  (fp_line (start 4.572 -2.54) (end 4.572 2.54) (layer F.Fab) (width 0.1))
  (fp_line (start -4.572 -2.54) (end 4.572 -2.54) (layer F.Fab) (width 0.1))
  (fp_line (start -4.572 -2.54) (end -4.572 2.54) (layer F.Fab) (width 0.1))
  (fp_line (start -5.08 -3.048) (end 5.08 -3.048) (layer F.CrtYd) (width 0.05))
  (fp_line (start -5.08 3.048) (end 5.08 3.048) (layer F.CrtYd) (width 0.05))
  (fp_line (start -5.08 -3.048) (end -5.08 3.048) (layer F.CrtYd) (width 0.05))
  (fp_line (start 5.08 -3.048) (end 5.08 3.048) (layer F.CrtYd) (width 0.05))
  (pad 1 smd rect (at -2.855 0) (size 3.5 5.1) (layers F.Cu F.Paste F.Mask))
  (pad 2 smd rect (at 2.855 0) (size 3.5 5.1) (layers F.Cu F.Paste F.Mask))
  (model ${KISYS3DMOD}/Resistor_SMD.3dshapes/R_Shunt_Vishay_WSR2_WSR3.wrl
    (at (xyz 0 0 0))
    (scale (xyz 1 1 1))
    (rotate (xyz 0 0 0))
  )
)
