(module Wurth_760871131 (layer F.Cu) (tedit 5E0C6ECC)
  (fp_text reference REF** (at 0 0.49) (layer F.SilkS)
    (effects (font (size 1 1) (thickness 0.15)))
  )
  (fp_text value Wurth_760871131 (at 0 -0.51) (layer F.Fab)
    (effects (font (size 1 1) (thickness 0.15)))
  )
  (fp_line (start -12.5 -11.11) (end 12.5 -11.11) (layer F.CrtYd) (width 0.12))
  (fp_line (start 12.5 -11.11) (end 12.5 11.09) (layer F.CrtYd) (width 0.12))
  (fp_line (start 12.5 11.09) (end -12.5 11.09) (layer F.CrtYd) (width 0.12))
  (fp_line (start -12.5 11.09) (end -12.5 -11.11) (layer F.CrtYd) (width 0.12))
  (pad 1 thru_hole circle (at -10 -7.49) (size 2 2) (drill 1.32) (layers *.Cu *.Mask))
  (pad 2 thru_hole circle (at -10 -5) (size 2 2) (drill 1.32) (layers *.Cu *.Mask))
  (pad 3 thru_hole circle (at -10 -2.51) (size 2 2) (drill 1.32) (layers *.Cu *.Mask))
  (pad 4 thru_hole circle (at -10 2.49) (size 2 2) (drill 1.32) (layers *.Cu *.Mask))
  (pad 5 thru_hole circle (at -10 4.98) (size 2 2) (drill 1.32) (layers *.Cu *.Mask))
  (pad 6 thru_hole circle (at -10 7.47) (size 2 2) (drill 1.32) (layers *.Cu *.Mask))
  (pad 7 thru_hole circle (at 10 8.705) (size 2 2) (drill 1.32) (layers *.Cu *.Mask))
  (pad 8 thru_hole circle (at 10 6.215) (size 2 2) (drill 1.32) (layers *.Cu *.Mask))
  (pad 9 thru_hole circle (at 10 3.725) (size 2 2) (drill 1.32) (layers *.Cu *.Mask))
  (pad 10 thru_hole circle (at 10 1.235) (size 2 2) (drill 1.32) (layers *.Cu *.Mask))
  (pad 11 thru_hole circle (at 10 -1.255) (size 2 2) (drill 1.32) (layers *.Cu *.Mask))
  (pad 12 thru_hole circle (at 10 -3.745) (size 2 2) (drill 1.32) (layers *.Cu *.Mask))
  (pad 13 thru_hole circle (at 10 -6.235) (size 2 2) (drill 1.32) (layers *.Cu *.Mask))
  (pad 14 thru_hole circle (at 10 -8.725) (size 2 2) (drill 1.32) (layers *.Cu *.Mask))
)
