(module Wurth_750871030 (layer F.Cu) (tedit 5E0C5F3C)
  (fp_text reference REF** (at 1.5 -1.5) (layer F.SilkS)
    (effects (font (size 1 1) (thickness 0.15)))
  )
  (fp_text value Wurth_750871030 (at 1.5 -2.5) (layer F.Fab)
    (effects (font (size 1 1) (thickness 0.15)))
  )
  (fp_line (start -12.5 -10) (end -12.5 10) (layer F.CrtYd) (width 0.12))
  (fp_line (start -12.5 10) (end 12.5 10) (layer F.CrtYd) (width 0.12))
  (fp_line (start 12.5 10) (end 12.5 -10) (layer F.CrtYd) (width 0.12))
  (fp_line (start 12.5 -10) (end -12.5 -10) (layer F.CrtYd) (width 0.12))
  (fp_line (start -12.5 -10) (end -12.5 10) (layer F.SilkS) (width 0.12))
  (fp_line (start -12.5 10) (end 12.5 10) (layer F.SilkS) (width 0.12))
  (fp_line (start 12.5 10) (end 12.5 -10) (layer F.SilkS) (width 0.12))
  (fp_line (start 12.5 -10) (end -12.5 -10) (layer F.SilkS) (width 0.12))
  (fp_line (start -12.5 -10) (end -12.5 -8.5) (layer F.SilkS) (width 0.12))
  (fp_line (start -12.5 -8.5) (end -11 -7) (layer F.SilkS) (width 0.12))
  (fp_line (start -11 -7) (end -12.5 -5.5) (layer F.SilkS) (width 0.12))
  (pad 1 thru_hole roundrect (at -8.5 -7) (size 2.2 2.2) (drill 1.45) (layers *.Cu *.Mask) (roundrect_rratio 0.25))
  (pad 2 thru_hole circle (at -8.5 -3.5) (size 2.2 2.2) (drill 1.45) (layers *.Cu *.Mask))
  (pad 3 thru_hole circle (at -8.5 0) (size 2.2 2.2) (drill 1.45) (layers *.Cu *.Mask))
  (pad 4 thru_hole circle (at -8.5 3.5) (size 2.2 2.2) (drill 1.45) (layers *.Cu *.Mask))
  (pad 5 thru_hole circle (at -8.5 7) (size 2.2 2.2) (drill 1.45) (layers *.Cu *.Mask))
  (pad 6 thru_hole circle (at 8.5 7.5) (size 2.2 2.2) (drill 1.45) (layers *.Cu *.Mask))
  (pad 7 thru_hole circle (at 8.5 2.5) (size 2.2 2.2) (drill 1.45) (layers *.Cu *.Mask))
  (pad 8 thru_hole circle (at 8.5 -2.5) (size 2.2 2.2) (drill 1.45) (layers *.Cu *.Mask))
  (pad 9 thru_hole circle (at 8.5 -7.5) (size 2.2 2.2) (drill 1.45) (layers *.Cu *.Mask))
)
